build/test2.vcd
$date
	Wed Jun 23 20:46:03 2021
$end
$version
	Icarus Verilog
$end
$timescale
	1ns
$end
$scope module tb $end
$scope module uut $end
$var wire 1 ! FWRD_EN $end
$var wire 1 " HZRD_DIS $end
$var wire 1 # clk $end
$var wire 1 $ rst $end
$var wire 32 % val_WB [31:0] $end
$var wire 1 & two_src_HZRD $end
$var wire 4 ' status_ID [3:0] $end
$var wire 4 ( status_EXE [3:0] $end
$var wire 4 ) src2_HZRD [3:0] $end
$var wire 4 * src2_FWRD [3:0] $end
$var wire 4 + src1_HZRD [3:0] $end
$var wire 4 , src1_FWRD [3:0] $end
$var wire 24 - signed_imm_24_EXE [23:0] $end
$var wire 12 . shifter_operand_EXE [11:0] $end
$var wire 2 / sel_src2_FWRD [1:0] $end
$var wire 2 0 sel_src1_FWRD [1:0] $end
$var wire 32 1 rn_val_EXE [31:0] $end
$var wire 32 2 rm_val_MEM [31:0] $end
$var wire 32 3 rm_val_EXE [31:0] $end
$var wire 32 4 pc_ID [31:0] $end
$var wire 32 5 pc_EXE [31:0] $end
$var wire 1 6 move_HZRD $end
$var wire 32 7 instruction_ID [31:0] $end
$var wire 1 8 imm_EXE $end
$var wire 1 9 hazard $end
$var wire 4 : exe_cmd_EXE [3:0] $end
$var wire 4 ; dest_WB [3:0] $end
$var wire 4 < dest_MEM [3:0] $end
$var wire 4 = dest_EXE [3:0] $end
$var wire 32 > data_WB [31:0] $end
$var wire 32 ? branch_address_IF [31:0] $end
$var wire 32 @ alu_res_WB [31:0] $end
$var wire 32 A alu_res_MEM [31:0] $end
$var wire 1 B WB_EN_WB $end
$var wire 1 C WB_EN_MEM $end
$var wire 1 D WB_EN_EXE $end
$var wire 1 E S_EXE $end
$var wire 1 F MEM_W_EN_MEM $end
$var wire 1 G MEM_W_EN_EXE $end
$var wire 1 H MEM_R_EN_WB $end
$var wire 1 I MEM_R_EN_MEM $end
$var wire 1 J MEM_R_EN_EXE $end
$var wire 1 K B_EXE $end
$var reg 32 L inst_count [31:0] $end
$var reg 1 M stop $end
$scope module EXE $end
$var wire 1 N MEM_EN $end
$var wire 1 # clk $end
$var wire 1 $ rst $end
$var wire 32 O val_WB [31:0] $end
$var wire 32 P val2 [31:0] $end
$var wire 32 Q val1 [31:0] $end
$var wire 32 R true_rm_val_EXE [31:0] $end
$var wire 4 S status_bits [3:0] $end
$var wire 4 T status_ID [3:0] $end
$var wire 4 U status_EXE [3:0] $end
$var wire 24 V signed_imm_24_EXE [23:0] $end
$var wire 12 W shifter_operand_EXE [11:0] $end
$var wire 2 X sel_src2_FWRD [1:0] $end
$var wire 2 Y sel_src1_FWRD [1:0] $end
$var wire 32 Z rn_val_EXE [31:0] $end
$var wire 32 [ rm_val_MEM [31:0] $end
$var wire 32 \ rm_val_EXE [31:0] $end
$var wire 32 ] pc_EXE [31:0] $end
$var wire 1 8 imm_EXE $end
$var wire 4 ^ exe_cmd_EXE [3:0] $end
$var wire 4 _ dest_MEM [3:0] $end
$var wire 4 ` dest_EXE [3:0] $end
$var wire 32 a branch_address_IF [31:0] $end
$var wire 32 b alu_res_MEM [31:0] $end
$var wire 32 c alu_res [31:0] $end
$var wire 1 C WB_EN_MEM $end
$var wire 1 D WB_EN_EXE $end
$var wire 1 E S_EXE $end
$var wire 1 F MEM_W_EN_MEM $end
$var wire 1 G MEM_W_EN_EXE $end
$var wire 1 I MEM_R_EN_MEM $end
$var wire 1 J MEM_R_EN_EXE $end
$var wire 1 d C $end
$var wire 1 K B_EXE $end
$scope module alu $end
$var wire 1 d c $end
$var wire 32 e val1 [31:0] $end
$var wire 32 f val2 [31:0] $end
$var wire 32 g result [31:0] $end
$var wire 4 h EXE_CMD [3:0] $end
$var reg 4 i status_bits [3:0] $end
$var reg 33 j tmp [32:0] $end
$upscope $end
$scope module pr_exe_mem $end
$var wire 32 k ALU_RES_EXE [31:0] $end
$var wire 32 l VAL_RM_EXE [31:0] $end
$var wire 1 # clk $end
$var wire 1 $ rst $end
$var wire 1 D WB_EN_EXE $end
$var wire 1 G MEM_W_EN_EXE $end
$var wire 1 J MEM_R_EN_EXE $end
$var wire 4 m DEST_EXE [3:0] $end
$var reg 32 n ALU_RES_MEM [31:0] $end
$var reg 4 o DEST_MEM [3:0] $end
$var reg 1 I MEM_R_EN_MEM $end
$var reg 1 F MEM_W_EN_MEM $end
$var reg 32 p VAL_RM_MEM [31:0] $end
$var reg 1 C WB_EN_MEM $end
$upscope $end
$scope module sr $end
$var wire 1 # clk $end
$var wire 1 $ rst $end
$var wire 4 q status_bits_in [3:0] $end
$var wire 1 E s $end
$var reg 4 r status_bits_out [3:0] $end
$upscope $end
$scope module v2g $end
$var wire 1 N mem_en $end
$var wire 32 s rm_val [31:0] $end
$var wire 12 t shifter_oprand [11:0] $end
$var wire 5 u shift_imm [4:0] $end
$var wire 2 v shift [1:0] $end
$var wire 4 w rotate_imm [3:0] $end
$var wire 4 x rm [3:0] $end
$var wire 8 y immed_8 [7:0] $end
$var wire 1 8 imm $end
$var wire 1 z fourth $end
$var reg 32 { val2 [31:0] $end
$var integer 32 | i [31:0] $end
$upscope $end
$upscope $end
$scope module FORWARD $end
$var wire 1 ! FWRD_EN $end
$var wire 1 C WB_EN_MEM $end
$var wire 4 } dest_MEM [3:0] $end
$var wire 4 ~ src2_FWRD [3:0] $end
$var wire 4 !" src1_FWRD [3:0] $end
$var wire 4 "" dest_WB [3:0] $end
$var wire 1 B WB_EN_WB $end
$var reg 2 #" sel_src1_FWRD [1:0] $end
$var reg 2 $" sel_src2_FWRD [1:0] $end
$upscope $end
$scope module HAZARD $end
$var wire 1 " HZRD_DIS $end
$var wire 1 C WB_EN_MEM $end
$var wire 4 %" dest_MEM [3:0] $end
$var wire 1 & two_src_HZRD $end
$var wire 4 &" src2_HZRD [3:0] $end
$var wire 4 '" src1_HZRD [3:0] $end
$var wire 1 6 move_HZRD $end
$var wire 4 (" dest_EXE [3:0] $end
$var wire 1 D WB_EN_EXE $end
$var reg 1 9 hazard $end
$upscope $end
$scope module ID $end
$var wire 1 # clk $end
$var wire 1 9 hazard $end
$var wire 1 )" mux_cc $end
$var wire 1 $ rst $end
$var wire 4 *" src1_HZRD [3:0] $end
$var wire 4 +" status_ID [3:0] $end
$var wire 1 & two_src_HZRD $end
$var wire 32 ," val [31:0] $end
$var wire 4 -" status_EXE [3:0] $end
$var wire 4 ." src2_HZRD [3:0] $end
$var wire 4 /" src2_FWRD [3:0] $end
$var wire 4 0" src1_FWRD [3:0] $end
$var wire 24 1" signed_imm_24_EXE [23:0] $end
$var wire 24 2" signed_imm_24 [23:0] $end
$var wire 12 3" shifter_operand_EXE [11:0] $end
$var wire 12 4" shifter_operand [11:0] $end
$var wire 1 5" s_ID $end
$var wire 4 6" rs [3:0] $end
$var wire 32 7" rn_val_EXE [31:0] $end
$var wire 32 8" rn_val [31:0] $end
$var wire 4 9" rn [3:0] $end
$var wire 32 :" rm_val_EXE [31:0] $end
$var wire 32 ;" rm_val [31:0] $end
$var wire 4 <" rm [3:0] $end
$var wire 4 =" rd [3:0] $end
$var wire 32 >" pc_ID [31:0] $end
$var wire 32 ?" pc_EXE [31:0] $end
$var wire 4 @" opcode [3:0] $end
$var wire 1 6 move_HZRD $end
$var wire 2 A" mode [1:0] $end
$var wire 32 B" instruction_ID [31:0] $end
$var wire 1 8 imm_EXE $end
$var wire 1 C" imm $end
$var wire 4 D" exe_cmd_EXE [3:0] $end
$var wire 4 E" exe_cmd [3:0] $end
$var wire 4 F" dest_WB [3:0] $end
$var wire 4 G" dest_EXE [3:0] $end
$var wire 4 H" cond [3:0] $end
$var wire 1 I" check_cc $end
$var wire 1 B WB_EN_WB $end
$var wire 1 D WB_EN_EXE $end
$var wire 1 J" WB_EN $end
$var wire 1 E S_EXE $end
$var wire 1 K" S $end
$var wire 1 G MEM_W_EN_EXE $end
$var wire 1 L" MEM_W_EN $end
$var wire 1 J MEM_R_EN_EXE $end
$var wire 1 M" MEM_R_EN $end
$var wire 1 K B_EXE $end
$var wire 1 N" B $end
$scope module cc $end
$var wire 4 O" cond [3:0] $end
$var wire 4 P" status_ID [3:0] $end
$var wire 1 Q" Z $end
$var wire 1 R" V $end
$var wire 1 S" N $end
$var wire 1 T" C $end
$var reg 1 I" check_cc $end
$upscope $end
$scope module ctrl $end
$var wire 1 5" S_ID $end
$var wire 2 U" mode [1:0] $end
$var wire 1 )" mux_cc $end
$var wire 4 V" opcode [3:0] $end
$var reg 1 N" B $end
$var reg 1 M" MEM_R_EN $end
$var reg 1 L" MEM_W_EN $end
$var reg 1 K" S $end
$var reg 1 J" WB_EN $end
$var reg 4 W" exe_cmd [3:0] $end
$var reg 1 6 move_HZRD $end
$upscope $end
$scope module pr_id_exe $end
$var wire 1 N" B_ID $end
$var wire 1 M" MEM_R_EN_ID $end
$var wire 1 L" MEM_W_EN_ID $end
$var wire 1 K" S_ID $end
$var wire 1 J" WB_EN_ID $end
$var wire 1 # clk $end
$var wire 4 X" dest_ID [3:0] $end
$var wire 4 Y" exe_cmd_ID [3:0] $end
$var wire 1 K flush $end
$var wire 1 C" imm_ID $end
$var wire 1 $ rst $end
$var wire 12 Z" shifter_operand_ID [11:0] $end
$var wire 24 [" signed_imm_24_ID [23:0] $end
$var wire 4 \" src1_ID [3:0] $end
$var wire 4 ]" src2_ID [3:0] $end
$var wire 4 ^" status_ID [3:0] $end
$var wire 32 _" rn_val_ID [31:0] $end
$var wire 32 `" rm_val_ID [31:0] $end
$var wire 32 a" pc_ID [31:0] $end
$var reg 1 K B_EXE $end
$var reg 1 J MEM_R_EN_EXE $end
$var reg 1 G MEM_W_EN_EXE $end
$var reg 1 E S_EXE $end
$var reg 1 D WB_EN_EXE $end
$var reg 4 b" dest_EXE [3:0] $end
$var reg 4 c" exe_cmd_EXE [3:0] $end
$var reg 1 8 imm_EXE $end
$var reg 32 d" pc_EXE [31:0] $end
$var reg 32 e" rm_val_EXE [31:0] $end
$var reg 32 f" rn_val_EXE [31:0] $end
$var reg 12 g" shifter_operand_EXE [11:0] $end
$var reg 24 h" signed_imm_24_EXE [23:0] $end
$var reg 4 i" src1_FWRD [3:0] $end
$var reg 4 j" src2_FWRD [3:0] $end
$var reg 4 k" status_EXE [3:0] $end
$upscope $end
$scope module rf $end
$var wire 1 # clk $end
$var wire 32 l" rm_val [31:0] $end
$var wire 32 m" rn_val [31:0] $end
$var wire 1 $ rst $end
$var wire 4 n" src1_HZRD [3:0] $end
$var wire 4 o" src2_HZRD [3:0] $end
$var wire 32 p" val_ID [31:0] $end
$var wire 4 q" dest_ID [3:0] $end
$var wire 1 B WB_EN_ID $end
$var integer 32 r" fd [31:0] $end
$var integer 32 s" i [31:0] $end
$upscope $end
$upscope $end
$scope module IF $end
$var wire 1 K B_EXE $end
$var wire 32 t" branch_address_IF [31:0] $end
$var wire 1 # clk $end
$var wire 1 9 hazard $end
$var wire 1 $ rst $end
$var wire 32 u" pc_next [31:0] $end
$var wire 32 v" pc_ID [31:0] $end
$var wire 32 w" pc4 [31:0] $end
$var wire 32 x" pc [31:0] $end
$var wire 32 y" instruction_ID [31:0] $end
$var wire 32 z" instruction [31:0] $end
$scope module PC $end
$var wire 1 # clk $end
$var wire 1 9 freeze $end
$var wire 32 {" pcIn [31:0] $end
$var wire 1 $ rst $end
$var reg 32 |" pcOut [31:0] $end
$upscope $end
$scope module im $end
$var wire 32 }" address [31:0] $end
$var wire 32 ~" instruction [31:0] $end
$upscope $end
$scope module pr_if_id $end
$var wire 1 # clk $end
$var wire 1 K flush $end
$var wire 1 9 freeze $end
$var wire 32 !# instruction_IF [31:0] $end
$var wire 32 "# pc_IF [31:0] $end
$var wire 1 $ rst $end
$var reg 32 ## instruction_ID [31:0] $end
$var reg 32 $# pc_ID [31:0] $end
$upscope $end
$upscope $end
$scope module MEM $end
$var wire 1 I MEM_R_EN_MEM $end
$var wire 1 F MEM_W_EN_MEM $end
$var wire 1 C WB_EN_MEM $end
$var wire 32 %# alu_res_MEM [31:0] $end
$var wire 1 # clk $end
$var wire 4 &# dest_MEM [3:0] $end
$var wire 32 '# rm_val_MEM [31:0] $end
$var wire 1 $ rst $end
$var wire 4 (# dest_WB [3:0] $end
$var wire 32 )# data_WB [31:0] $end
$var wire 32 *# data [31:0] $end
$var wire 32 +# alu_res_WB [31:0] $end
$var wire 1 B WB_EN_WB $end
$var wire 1 H MEM_R_EN_WB $end
$scope module dm $end
$var wire 1 I MEM_R_EN $end
$var wire 1 F MEM_W_EN $end
$var wire 32 ,# alu_res [31:0] $end
$var wire 1 # clk $end
$var wire 32 -# rm_val [31:0] $end
$var wire 1 $ rst $end
$var wire 32 .# data_mem [31:0] $end
$var integer 32 /# fd [31:0] $end
$var integer 32 0# i [31:0] $end
$upscope $end
$scope module pr_mem_wb $end
$var wire 1 I MEM_R_EN_MEM $end
$var wire 1 C WB_EN_MEM $end
$var wire 32 1# alu_res_MEM [31:0] $end
$var wire 1 # clk $end
$var wire 32 2# data [31:0] $end
$var wire 4 3# dest_MEM [3:0] $end
$var wire 1 $ rst $end
$var reg 1 H MEM_R_EN_WB $end
$var reg 1 B WB_EN_WB $end
$var reg 32 4# alu_res_WB [31:0] $end
$var reg 32 5# data_WB [31:0] $end
$var reg 4 6# dest_WB [3:0] $end
$upscope $end
$upscope $end
$scope module WB $end
$var wire 1 H MEM_R_EN_WB $end
$var wire 1 B WB_EN_WB $end
$var wire 32 7# alu_res_WB [31:0] $end
$var wire 32 8# data_WB [31:0] $end
$var wire 4 9# dest_WB [3:0] $end
$var wire 32 :# val [31:0] $end
$upscope $end
$upscope $end
$upscope $end
$enddefinitions $end
#0
$dumpvars
bx :#
bx 9#
bx 8#
bx 7#
bx 6#
bx 5#
bx 4#
bx 3#
bx 2#
bx 1#
b1000000 0#
b10000000000000000000000000000011 /#
bx .#
bx -#
bx ,#
bx +#
bx *#
bx )#
bx (#
bx '#
bx &#
bx %#
bx $#
b0 ##
b100 "#
b11100011101000000000000000010100 !#
b11100011101000000000000000010100 ~"
b0 }"
b0 |"
bx {"
b11100011101000000000000000010100 z"
b0 y"
b0 x"
b100 w"
bx v"
bx u"
bx t"
b1111 s"
b10000000000000000000000000000011 r"
bx q"
bx p"
b0 o"
b0 n"
b0 m"
b0 l"
bx k"
bx j"
bx i"
bx h"
bx g"
bx f"
bx e"
bx d"
bx c"
bx b"
bx a"
b0 `"
b0 _"
bx ^"
b0 ]"
b0 \"
b0 ["
b0 Z"
b0 Y"
b0 X"
b0 W"
b0 V"
b0 U"
xT"
xS"
xR"
xQ"
bx P"
b0 O"
0N"
0M"
0L"
0K"
0J"
0I"
b0 H"
bx G"
bx F"
b0 E"
bx D"
0C"
b0 B"
b0 A"
b0 @"
bx ?"
bx >"
b0 ="
b0 <"
b0 ;"
bx :"
b0 9"
b0 8"
bx 7"
b0 6"
05"
b0 4"
bx 3"
b0 2"
bx 1"
bx 0"
bx /"
b0 ."
bx -"
bx ,"
bx +"
b0 *"
1)"
bx ("
b0 '"
b0 &"
bx %"
b0 $"
b0 #"
bx ""
bx !"
bx ~
bx }
bx |
bx {
xz
bx y
bx x
bx w
bx v
bx u
bx t
bx s
bx r
bx q
bx p
bx o
bx n
bx m
bx l
bx k
bx j
bx i
bx h
bx g
bx f
bx e
xd
bx c
bx b
bx a
bx `
bx _
bx ^
bx ]
bx \
bx [
bx Z
b0 Y
b0 X
bx W
bx V
bx U
bx T
bx S
bx R
bx Q
bx P
bx O
xN
0M
b0 L
xK
xJ
xI
xH
xG
xF
xE
xD
xC
xB
bx A
bx @
bx ?
bx >
bx =
bx <
bx ;
bx :
09
x8
b0 7
06
bx 5
bx 4
bx 3
bx 2
bx 1
b0 0
b0 /
bx .
bx -
bx ,
b0 +
bx *
b0 )
bx (
bx '
1&
bx %
0$
0#
x"
1!
$end
#10
b0 c
b0 g
b0 k
1"
0S"
0Q"
0T"
0R"
0d
b0 ?
b0 a
b0 t"
b0 x
0z
b0 v
b0 u
b0 y
b0 w
b0 |
b0 P
b0 f
b0 {
b0 R
b0 l
b0 s
b0 Q
b0 e
b100 S
b100 i
b100 q
b0 j
b100 u"
b100 {"
0N
b0 *#
b0 .#
b0 2#
b0 %
b0 O
b0 ,"
b0 p"
b0 :#
b0 '
b0 T
b0 r
b0 +"
b0 P"
b0 ^"
b0 4
b0 >"
b0 a"
b0 v"
b0 $#
b0 *
b0 ~
b0 /"
b0 j"
b0 ,
b0 !"
b0 0"
b0 i"
b0 (
b0 U
b0 -"
b0 k"
b0 =
b0 `
b0 m
b0 ("
b0 G"
b0 b"
b0 -
b0 V
b0 1"
b0 h"
b0 .
b0 W
b0 t
b0 3"
b0 g"
08
b0 3
b0 \
b0 :"
b0 e"
b0 1
b0 Z
b0 7"
b0 f"
b0 5
b0 ]
b0 ?"
b0 d"
b0 :
b0 ^
b0 h
b0 D"
b0 c"
0K
0E
0G
0J
0D
b0 <
b0 _
b0 o
b0 }
b0 %"
b0 &#
b0 3#
b0 2
b0 [
b0 p
b0 '#
b0 -#
b0 A
b0 b
b0 n
b0 %#
b0 ,#
b0 1#
0F
0I
0C
0B
0H
b0 @
b0 +#
b0 4#
b0 7#
b0 >
b0 )#
b0 5#
b0 8#
b0 ;
b0 ""
b0 F"
b0 q"
b0 (#
b0 6#
b0 9#
b1111 s"
1$
1#
#20
0$
0#
#30
16
1J"
b1 E"
b1 W"
b1 Y"
0)"
0&
b100 ;"
b100 `"
b100 l"
b100 )
b100 &"
b100 ."
b100 ]"
b100 o"
1I"
b101000000000000000010100 2"
b101000000000000000010100 ["
b10100 4"
b10100 Z"
b100 <"
b1101 @"
b1101 V"
1C"
b1110 H"
b1110 O"
b1000 u"
b1000 {"
b100 4
b100 >"
b100 a"
b100 v"
b100 $#
b11100011101000000000000000010100 7
b11100011101000000000000000010100 B"
b11100011101000000000000000010100 y"
b11100011101000000000000000010100 ##
b11100011101000000001101000000001 z"
b11100011101000000001101000000001 ~"
b11100011101000000001101000000001 !#
b1000 w"
b1000 "#
b100 x"
b100 |"
b100 }"
1#
#40
0#
#50
b10100 c
b10100 g
b10100 k
b0 S
b0 i
b0 q
b10100 j
b1 ;"
b1 `"
b1 l"
b1 )
b1 &"
b1 ."
b1 ]"
b1 o"
b10100 P
b10100 f
b10100 {
b1100 u"
b1100 {"
b101000000001101000000001 2"
b101000000001101000000001 ["
b101000000001 4"
b101000000001 Z"
b1010 6"
b1 <"
b1 ="
b1 X"
b100 x
1z
b10100 y
b100 R
b100 l
b100 s
b11100011101000000010000100000011 z"
b11100011101000000010000100000011 ~"
b11100011101000000010000100000011 !#
b1100 w"
b1100 "#
b1000 x"
b1000 |"
b1000 }"
b1000 4
b1000 >"
b1000 a"
b1000 v"
b1000 $#
b11100011101000000001101000000001 7
b11100011101000000001101000000001 B"
b11100011101000000001101000000001 y"
b11100011101000000001101000000001 ##
b100 *
b100 ~
b100 /"
b100 j"
b101000000000000000010100 -
b101000000000000000010100 V
b101000000000000000010100 1"
b101000000000000000010100 h"
b10100 .
b10100 W
b10100 t
b10100 3"
b10100 g"
18
b100 3
b100 \
b100 :"
b100 e"
b11111110100000000000000001010100 ?
b11111110100000000000000001010100 a
b11111110100000000000000001010100 t"
b100 5
b100 ]
b100 ?"
b100 d"
b1 :
b1 ^
b1 h
b1 D"
b1 c"
1D
1#
#60
0#
#70
b1000000000000 c
b1000000000000 g
b1000000000000 k
b10100 Q
b10100 e
b1000000000000 j
b1010 |
b1000000000000 P
b1000000000000 f
b1000000000000 {
b11 ;"
b11 `"
b11 l"
b11 )
b11 &"
b11 ."
b11 ]"
b11 o"
b1 0
b1 Y
b1 #"
b1 x
0z
b10100 u
b1 y
b1010 w
b1 R
b1 l
b1 s
b101000000010000100000011 2"
b101000000010000100000011 ["
b100000011 4"
b100000011 Z"
b1 6"
b11 <"
b10 ="
b10 X"
b10000 u"
b10000 {"
b100 2
b100 [
b100 p
b100 '#
b100 -#
b10100 A
b10100 b
b10100 n
b10100 %#
b10100 ,#
b10100 1#
1C
b1 *
b1 ~
b1 /"
b1 j"
b1 =
b1 `
b1 m
b1 ("
b1 G"
b1 b"
b101000000001101000000001 -
b101000000001101000000001 V
b101000000001101000000001 1"
b101000000001101000000001 h"
b101000000001 .
b101000000001 W
b101000000001 t
b101000000001 3"
b101000000001 g"
b1 3
b1 \
b1 :"
b1 e"
b11111110100000000110100000001100 ?
b11111110100000000110100000001100 a
b11111110100000000110100000001100 t"
b1000 5
b1000 ]
b1000 ?"
b1000 d"
b1100 4
b1100 >"
b1100 a"
b1100 v"
b1100 $#
b11100011101000000010000100000011 7
b11100011101000000010000100000011 B"
b11100011101000000010000100000011 y"
b11100011101000000010000100000011 ##
b11100000100100100011000000000010 z"
b11100000100100100011000000000010 ~"
b11100000100100100011000000000010 !#
b10000 w"
b10000 "#
b1100 x"
b1100 |"
b1100 }"
1#
#80
0#
#90
b11000000000000000000000000000000 c
b11000000000000000000000000000000 g
b11000000000000000000000000000000 k
1&
b1000 S
b1000 i
b1000 q
b111000000000000000000000000000000 j
b10 ;"
b10 `"
b10 l"
b10 )
b10 &"
b10 ."
b10 ]"
b10 o"
09
1K"
b10 E"
b10 W"
b10 Y"
1J"
06
b10100 u"
b10100 {"
b100100100011000000000010 2"
b100100100011000000000010 ["
b10 4"
b10 Z"
b0 6"
b10 <"
b11 ="
b11 X"
b10 8"
b10 _"
b10 m"
b10 +
b10 '"
b10 *"
b10 \"
b10 n"
b10 9"
15"
b100 @"
b100 V"
0C"
b11 x
b10 u
b11 y
b1 w
b1 |
b11000000000000000000000000000000 P
b11000000000000000000000000000000 f
b11000000000000000000000000000000 {
b11 R
b11 l
b11 s
b10 0
b10 Y
b10 #"
b10100 %
b10100 O
b10100 ,"
b10100 p"
b10100 :#
b11100000101000000100000000000000 z"
b11100000101000000100000000000000 ~"
b11100000101000000100000000000000 !#
b10100 w"
b10100 "#
b10000 x"
b10000 |"
b10000 }"
b10000 4
b10000 >"
b10000 a"
b10000 v"
b10000 $#
b11100000100100100011000000000010 7
b11100000100100100011000000000010 B"
b11100000100100100011000000000010 y"
b11100000100100100011000000000010 ##
b11 *
b11 ~
b11 /"
b11 j"
b10 =
b10 `
b10 m
b10 ("
b10 G"
b10 b"
b101000000010000100000011 -
b101000000010000100000011 V
b101000000010000100000011 1"
b101000000010000100000011 h"
b100000011 .
b100000011 W
b100000011 t
b100000011 3"
b100000011 g"
b11 3
b11 \
b11 :"
b11 e"
b11111110100000001000010000011000 ?
b11111110100000001000010000011000 a
b11111110100000001000010000011000 t"
b1100 5
b1100 ]
b1100 ?"
b1100 d"
b1 <
b1 _
b1 o
b1 }
b1 %"
b1 &#
b1 3#
b1 2
b1 [
b1 p
b1 '#
b1 -#
b1000000000000 A
b1000000000000 b
b1000000000000 n
b1000000000000 %#
b1000000000000 ,#
b1000000000000 1#
1B
b10100 @
b10100 +#
b10100 4#
b10100 7#
1#
#100
b1111 s"
0#
#110
b11000000000000000000000000000000 Q
b11000000000000000000000000000000 e
b10000000000000000000000000000000 c
b10000000000000000000000000000000 g
b10000000000000000000000000000000 k
b10100 ;"
b10100 `"
b10100 l"
b0 )
b0 &"
b0 ."
b0 ]"
b0 o"
b11 E"
b11 W"
b11 Y"
1J"
0K"
b1000000000000 %
b1000000000000 O
b1000000000000 ,"
b1000000000000 p"
b1000000000000 :#
b1 /
b1 X
b1 $"
b1 0
b1 Y
b1 #"
09
b10 x
b0 u
b10 y
b0 w
b0 |
b11000000000000000000000000000000 P
b11000000000000000000000000000000 f
b11000000000000000000000000000000 {
b11000000000000000000000000000000 R
b11000000000000000000000000000000 l
b11000000000000000000000000000000 s
b1010 S
b1010 i
b1010 q
b110000000000000000000000000000000 j
b101000000100000000000000 2"
b101000000100000000000000 ["
b0 4"
b0 Z"
b0 <"
b100 ="
b100 X"
b10100 8"
b10100 _"
b10100 m"
b0 +
b0 '"
b0 *"
b0 \"
b0 n"
b0 9"
05"
b101 @"
b101 V"
b11000 u"
b11000 {"
b1000000000000 @
b1000000000000 +#
b1000000000000 4#
b1000000000000 7#
b1 ;
b1 ""
b1 F"
b1 q"
b1 (#
b1 6#
b1 9#
b10 <
b10 _
b10 o
b10 }
b10 %"
b10 &#
b10 3#
b11 2
b11 [
b11 p
b11 '#
b11 -#
b11000000000000000000000000000000 A
b11000000000000000000000000000000 b
b11000000000000000000000000000000 n
b11000000000000000000000000000000 %#
b11000000000000000000000000000000 ,#
b11000000000000000000000000000000 1#
b10 *
b10 ~
b10 /"
b10 j"
b10 ,
b10 !"
b10 0"
b10 i"
b11 =
b11 `
b11 m
b11 ("
b11 G"
b11 b"
b100100100011000000000010 -
b100100100011000000000010 V
b100100100011000000000010 1"
b100100100011000000000010 h"
b10 .
b10 W
b10 t
b10 3"
b10 g"
08
b10 3
b10 \
b10 :"
b10 e"
b10 1
b10 Z
b10 7"
b10 f"
b11111110010010001100000000011000 ?
b11111110010010001100000000011000 a
b11111110010010001100000000011000 t"
b10000 5
b10000 ]
b10000 ?"
b10000 d"
b10 :
b10 ^
b10 h
b10 D"
b10 c"
1E
b10100 4
b10100 >"
b10100 a"
b10100 v"
b10100 $#
b11100000101000000100000000000000 7
b11100000101000000100000000000000 B"
b11100000101000000100000000000000 y"
b11100000101000000100000000000000 ##
b11100000010001000101000100000100 z"
b11100000010001000101000100000100 ~"
b11100000010001000101000100000100 !#
b11000 w"
b11000 "#
b10100 x"
b10100 |"
b10100 }"
1#
#120
1I"
1S"
1T"
b1010 '
b1010 T
b1010 r
b1010 +"
b1010 P"
b1010 ^"
b1111 s"
0#
#130
b101001 c
b101001 g
b101001 k
b100 ;"
b100 `"
b100 l"
b100 )
b100 &"
b100 ."
b100 ]"
b100 o"
09
b100 E"
b100 W"
b100 Y"
1J"
b0 S
b0 i
b0 q
b101001 j
b10100 P
b10100 f
b10100 {
b10100 R
b10100 l
b10100 s
b10100 Q
b10100 e
b11100 u"
b11100 {"
b10001000101000100000100 2"
b10001000101000100000100 ["
b100000100 4"
b100000100 Z"
b1 6"
b100 <"
b101 ="
b101 X"
b100 8"
b100 _"
b100 m"
b100 +
b100 '"
b100 *"
b100 \"
b100 n"
b100 9"
b10 @"
b10 V"
1d
b0 x
b0 y
b11000000000000000000000000000000 %
b11000000000000000000000000000000 O
b11000000000000000000000000000000 ,"
b11000000000000000000000000000000 p"
b11000000000000000000000000000000 :#
b0 /
b0 X
b0 $"
b0 0
b0 Y
b0 #"
b11100000110000000110000010100000 z"
b11100000110000000110000010100000 ~"
b11100000110000000110000010100000 !#
b11100 w"
b11100 "#
b11000 x"
b11000 |"
b11000 }"
b11000 4
b11000 >"
b11000 a"
b11000 v"
b11000 $#
b11100000010001000101000100000100 7
b11100000010001000101000100000100 B"
b11100000010001000101000100000100 y"
b11100000010001000101000100000100 ##
b0 *
b0 ~
b0 /"
b0 j"
b0 ,
b0 !"
b0 0"
b0 i"
b1010 (
b1010 U
b1010 -"
b1010 k"
b100 =
b100 `
b100 m
b100 ("
b100 G"
b100 b"
b101000000100000000000000 -
b101000000100000000000000 V
b101000000100000000000000 1"
b101000000100000000000000 h"
b0 .
b0 W
b0 t
b0 3"
b0 g"
b10100 3
b10100 \
b10100 :"
b10100 e"
b10100 1
b10100 Z
b10100 7"
b10100 f"
b11111110100000010000000000010100 ?
b11111110100000010000000000010100 a
b11111110100000010000000000010100 t"
b10100 5
b10100 ]
b10100 ?"
b10100 d"
b11 :
b11 ^
b11 h
b11 D"
b11 c"
0E
b11 <
b11 _
b11 o
b11 }
b11 %"
b11 &#
b11 3#
b11000000000000000000000000000000 2
b11000000000000000000000000000000 [
b11000000000000000000000000000000 p
b11000000000000000000000000000000 '#
b11000000000000000000000000000000 -#
b10000000000000000000000000000000 A
b10000000000000000000000000000000 b
b10000000000000000000000000000000 n
b10000000000000000000000000000000 %#
b10000000000000000000000000000000 ,#
b10000000000000000000000000000000 1#
b11000000000000000000000000000000 @
b11000000000000000000000000000000 +#
b11000000000000000000000000000000 4#
b11000000000000000000000000000000 7#
b10 ;
b10 ""
b10 F"
b10 q"
b10 (#
b10 6#
b10 9#
1#
#140
b1111 s"
0#
